…
Then a *result* dataset was created to calculate the mean by activity
and subject **5. From the data set in step 4, creates a second,
independent tidy data set with the average of each variable for each
activity and each subject.**

``` r
result <- aggregate(group_train_test[,3:38], list(subject = train_test_mean_std$subject, activity = train_test_mean_std$activity), mean)
result <- as_tibble(result)
result_arranged <- (arrange(result, subject))
head(result_arranged, 24)
```

    ## # A tibble: 24 x 38
    ##    subject activity         tBodyAcc.mean...X tBodyAcc.mean...Y tBodyAcc.mean..~
    ##      <int> <chr>                        <dbl>             <dbl>            <dbl>
    ##  1       1 LAYING                       0.222          -0.0405           -0.113 
    ##  2       1 SITTING                      0.261          -0.00131          -0.105 
    ##  3       1 STANDING                     0.279          -0.0161           -0.111 
    ##  4       1 WALKING                      0.277          -0.0174           -0.111 
    ##  5       1 WALKING_DOWNSTA~             0.289          -0.00992          -0.108 
    ##  6       1 WALKING_UPSTAIRS             0.255          -0.0240           -0.0973
    ##  7       2 LAYING                       0.281          -0.0182           -0.107 
    ##  8       2 SITTING                      0.277          -0.0157           -0.109 
    ##  9       2 STANDING                     0.278          -0.0184           -0.106 
    ## 10       2 WALKING                      0.276          -0.0186           -0.106 
    ## # ... with 14 more rows, and 33 more variables: tGravityAcc.mean...X <dbl>,
    ## #   tGravityAcc.mean...Y <dbl>, tGravityAcc.mean...Z <dbl>,
    ## #   tBodyAccJerk.mean...X <dbl>, tBodyAccJerk.mean...Y <dbl>,
    ## #   tBodyAccJerk.mean...Z <dbl>, tBodyGyro.mean...X <dbl>,
    ## #   tBodyGyro.mean...Y <dbl>, tBodyGyro.mean...Z <dbl>,
    ## #   tBodyGyroJerk.mean...X <dbl>, tBodyGyroJerk.mean...Y <dbl>,
    ## #   tBodyGyroJerk.mean...Z <dbl>, tBodyAccMag.mean.. <dbl>,
    ## #   tGravityAccMag.mean.. <dbl>, tBodyAccJerkMag.mean.. <dbl>,
    ## #   tBodyGyroMag.mean.. <dbl>, tBodyGyroJerkMag.mean.. <dbl>,
…
